…
## Propose a model

  - 1.  Predictor Selection - We use backward to build the model We fit
        a regression using all predictors, and use AIC criterion for var
        selection, from which we choose the model with the smallest
        value.

<!-- end list -->

``` r
all_fit = lm(bwt ~ babysex + bhead + blength + fincome + frace + gaweeks + malform + menarche + mheight + momage + mrace + parity + pnumlbw + pnumsga + ppbmi + ppwt + smoken + wtgain,data = birthweight_df)
broom::tidy(all_fit) 
```

    ## # A tibble: 23 x 5
    ##    term               estimate std.error statistic   p.value
    ##    <chr>                 <dbl>     <dbl>     <dbl>     <dbl>
    ##  1 (Intercept)       -6141.      679.      -9.04   2.40e- 19
    ##  2 babysexMale         -27.8       8.70    -3.19   1.41e-  3
    ##  3 bhead               133.        3.55    37.3    3.42e-262
    ##  4 blength              75.0       2.08    36.0    7.01e-247
    ##  5 fincome               0.310     0.181    1.71   8.76e-  2
    ##  6 fraceBlack            7.21     81.7      0.0882 9.30e-  1
    ##  7 fraceOther           -6.00     98.9     -0.0606 9.52e-  1
    ##  8 fracePuerto Rican  -181.       88.6     -2.04   4.14e-  2
    ##  9 fraceWhite           -9.88     71.4     -0.138  8.90e-  1
    ## 10 gaweeks              11.2       1.53     7.37   2.04e- 13
    ## # … with 13 more rows
…
